<svg version="1.1" viewBox="0 0 35.505 100" xmlns="http://www.w3.org/2000/svg">
 <g fill="none" stroke="#000" stroke-linecap="round" stroke-linejoin="round">
  <circle cx="12.592" cy="35" r="5"/>
  <path d="m12.592 30c15 0 15 10 15 10"/>
  <path d="m27.592 40h-6.589c-10.667 0-20.503 5.1424-20.503 15 0 9.8576 8.4504 15 20.503 15h6.589c-13.683 0-16.903 6.0435-16.903 10 0 3.9565 3.0318 10 10.976 10 7.9446 0 12.013-4.285 13.34-10"/>
 </g>
</svg>
