<svg version="1.1" viewBox="0 0 55.068 100" xmlns="http://www.w3.org/2000/svg">
 <path d="m22.9 30c-30.909 0-27.004 40-5.4276 40 16.218 0 17.952-20.087 3.9221-20.087 0-9.9135 5.2329-19.913 16.519-19.913 23.381 0 21.034 40-0.11096 40" fill="none" stroke="#000" stroke-linecap="round" stroke-linejoin="round"/>
</svg>
