<svg version="1.1" viewBox="0 0 13.618 100" xmlns="http://www.w3.org/2000/svg">
 <path d="m0.5 40h12.618l-12.618 10h12.618c-8.1692 4.1728-12.618 7.4134-12.618 12.678 0 5.2647 3.8283 7.3219 6.3091 7.322 2.5702 4e-6 5.4541-1.5495 6.3091-5" fill="none" stroke="#000" stroke-linecap="round" stroke-linejoin="round"/>
</svg>
