<svg version="1.1" viewBox="0 0 79.581 100" xmlns="http://www.w3.org/2000/svg">
 <g fill="none" stroke="#000" stroke-linecap="round" stroke-linejoin="round">
  <circle cx="28.137" cy="35" r="5"/>
  <path d="m28.137 30c15 0 15 10 15 10"/>
  <path d="m43.137 40h-25"/>
  <path d="m28.137 40c-9.6924 4.5433-10 12.102-10 14.034 0 7.5 4.8803 15.966 20.313 15.966s22.994-11.085 22.994-25c0-13.915-10.7-35-38.307-35 1.5578 0.97433 3.3572 1.6245 2.3312 4.9685-1.026 3.3439 4.1234 5.0315 5.2256 5.0315 3.4038 0 6.6215 0 12.115-5.4933"/>
 </g>
</svg>
