<svg version="1.1" viewBox="0 0 59.006 100" xmlns="http://www.w3.org/2000/svg">
 <g fill="none" stroke="#000" stroke-linecap="round" stroke-linejoin="round">
  <circle cx="9.3928" cy="35" r="5"/>
  <path d="m9.3936 30c13.513 0 13.834 10 13.834 10"/>
  <path d="m23.228 40h-22.727"/>
  <path d="m41.74 70c21.145 0 23.491-40 0.11098-40-11.286 0-17.314 10-17.314 19.913 14.03 0 10.819 20.087-5.7403 20.087-10.366 0-18.296-6.413-18.296-16.023 0-7.761 6.9977-13.977 16.323-13.977h6.404"/>
 </g>
</svg>
