<svg version="1.1" viewBox="0 0 51.64 100" xmlns="http://www.w3.org/2000/svg">
 <g fill="none" stroke="#000" stroke-linecap="round" stroke-linejoin="round">
  <circle cx="7.7468" cy="35" r="5"/>
  <path d="m7.7468 30c15 0 15 10 15 10"/>
  <path d="m51.14 10-17.937 30.73c-2.8561 4.4428-0.04295 9.2696 4.2082 9.2696 4.2511 0 6.9302-4.1483 6.9302-10s-4.1335-10-9.2671-10c-6.3223 0-8.8954 5.6131-8.8954 10h3.4232c9.0208 0 18.823 4.6363 18.823 15 0 11.825-15.015 15-23.963 15-8.948 0-23.963-3.1751-23.963-15 0-10.364 9.8027-15 18.823-15h3.4233"/>
 </g>
</svg>
