<svg version="1.1" viewBox="0 0 67.357 100" xmlns="http://www.w3.org/2000/svg">
 <g fill="none" stroke="#000" stroke-linecap="round" stroke-linejoin="round">
  <path d="m2.8464 60c-5.6519-12.742-0.79013-30 11.472-30 5.308 0 8.6729 3.8101 8.6732 9.9999-25.191 0-21.576 30 2.75e-4 30 16.218 0 17.952-20 3.9221-20 0-9.9135 10.468-20 21.754-20 9.8241 0 16.001 4.5478 18.189 10"/>
  <path d="m66.857 40h-6.59c-10.667 0-20.503 5.1424-20.503 15s8.4504 15 20.503 15h6.589"/>
  <path d="m66.856 70v20h-22.092c-2.7614 0-5-2.2386-5-5s2.2386-5 5-5"/>
 </g>
</svg>
