<svg version="1.1" viewBox="0 0 48.926 100" xmlns="http://www.w3.org/2000/svg">
 <path d="m7.7461 30c2.7614 0 5 2.2386 5 5s-2.2386 5-5 5c-2.7614 0-5-2.2386-5-5s2.2386-5 5-5c15 0 15 10 15 10h-3.4232c-9.0208 0-18.823 4.6363-18.823 15 0 11.825 15.015 15 23.963 15s23.963-3.1751 23.963-15c0-10.364-9.8027-15-18.823-15h-3.424c0.14525-6.5037 5.5986-10 10.325-10 4.8687 0 9.6754 4.6894 7.0781 10-2.51 5.1321-10.661 10-19.12 10h-1.7161c-9.9378 0-9.9378 10 0 10h3.4322c9.9378 0 9.9378-10 0-10h-1.7161" fill="none" stroke="#000" stroke-linecap="round" stroke-linejoin="round"/>
</svg>
